%YAML 1.1
%TAG !u! tag:unity3d.com,2011:
--- !u!114 &11400000
MonoBehaviour:
  m_ObjectHideFlags: 0
  m_CorrespondingSourceObject: {fileID: 0}
  m_PrefabInstance: {fileID: 0}
  m_PrefabAsset: {fileID: 0}
  m_GameObject: {fileID: 0}
  m_Enabled: 1
  m_EditorHideFlags: 0
  m_Script: {fileID: 11500000, guid: 06123f56b2933594a807b53caaf16e46, type: 3}
  m_Name: AppConfigKroslak
  m_EditorClassIdentifier: 
  modelList:
  - {fileID: 11400000, guid: c769786893eb22346b573d1e74b8ba5c, type: 2}
  - {fileID: 11400000, guid: 89a83355940583f45a4adc2e84be7730, type: 2}
  - {fileID: 11400000, guid: b70a83aeae602e54c8ca7ca2995c19be, type: 2}
  - {fileID: 11400000, guid: 14c7f33d4c61c184c9bab568be504c9c, type: 2}
  - {fileID: 11400000, guid: e7cbc129c60923a489420bcaa7eab2c9, type: 2}
  - {fileID: 11400000, guid: 974026333a0013141aaf059ffa7635e9, type: 2}
  - {fileID: 11400000, guid: 587578d0cb7cb924fb527945d734dd6d, type: 2}
  partPointIcons:
  - {fileID: 21300000, guid: c4bce53a1ce68c645b31ec1a19dfac5e, type: 3}
  - {fileID: 21300000, guid: c4bce53a1ce68c645b31ec1a19dfac5e, type: 3}
  - {fileID: 21300000, guid: c4bce53a1ce68c645b31ec1a19dfac5e, type: 3}
  partPointConnections:
  - connection: l
    canConnectTo:
    - r
  - connection: r
    canConnectTo:
    - l
  - connection: b
    canConnectTo:
    - b
  - connection: sol
    canConnectTo:
    - ol
  - connection: sop
    canConnectTo:
    - op
  - connection: ol
    canConnectTo:
    - sol
  - connection: op
    canConnectTo:
    - sop
  mailRecipients:
  - kroslak@kroslak.sk
  mailRecipientByUser: 1
  mailSubject: "Dopyt z 3D konfigur\xE1tora Kro\u0161l\xE1k"
  mailBody: "\u010Eakujeme za V\xE1\u0161 dopyt.\\nNi\u017E\u0161ie n\xE1jdete sum\xE1r
    zostavy a cenov\xFA ponuku.\\n\\nKontaktn\xE9 \xFAdaje klienta:\\n"
  spriteLogo: {fileID: 21300000, guid: 527a43bbf73a9294b9e949ba6526ed30, type: 3}
  spriteMenuBackground: {fileID: 0}
  spriteMenuBackgroundWeb: {fileID: 0}
  colorMenuBackground: {r: 0.9450981, g: 0.9450981, b: 0.9450981, a: 1}
  assetBundlesUrl: https://playar.eu/configurator/assetbundles
  imageUploaderUrl: https://playar.eu/SaveImagePHP
  stockUrl: https://playar.eu/configurator/stock
  usersUrl: https://playar.eu/kroslak/users.json
  companyId: kroslak
  allowLanguageChanging: 0
  forceLanguage: 
  menuScene: kroslak_arteston_menu
  configuratorScene: kroslak_arteston_configurator
  dimensionsScale: 0.01
  dimensionsUnits: cm
  showSelection: 1
  showMenuLogo: 0
  hideUncompatibleParts: 1
  allowMultipleMaterialTypes: 1
  showSeatComfort: 1
