%YAML 1.1
%TAG !u! tag:unity3d.com,2011:
--- !u!114 &11400000
MonoBehaviour:
  m_ObjectHideFlags: 0
  m_CorrespondingSourceObject: {fileID: 0}
  m_PrefabInstance: {fileID: 0}
  m_PrefabAsset: {fileID: 0}
  m_GameObject: {fileID: 0}
  m_Enabled: 1
  m_EditorHideFlags: 0
  m_Script: {fileID: 11500000, guid: 8973e6154edcde744841ac45fa8be0e2, type: 3}
  m_Name: Atlanta
  m_EditorClassIdentifier: 
  colors:
  - color: {r: 1, g: 1, b: 1, a: 1}
    material: {fileID: 2100000, guid: 1e4e443143558b24eb003b92e32d7fff, type: 2}
    sprite: {fileID: 21300000, guid: 62ebd349f36373548a53c2ac8a8165ab, type: 3}
    colorName: "ve\u013Ek\xFD vzor b\xE9\u017Eov\xE1"
  - color: {r: 1, g: 1, b: 1, a: 1}
    material: {fileID: 2100000, guid: 61b1d7c55d9b228479b09085dc78cdb1, type: 2}
    sprite: {fileID: 21300000, guid: 66af893114a3fdd4c85586ee0c42ac39, type: 3}
    colorName: "ve\u013Ek\xFD vzor \u010Derven\xE1"
  - color: {r: 1, g: 1, b: 1, a: 1}
    material: {fileID: 2100000, guid: f48cb70abb84af04a9531ceeb15c4a9f, type: 2}
    sprite: {fileID: 21300000, guid: e11c49e793c49b04da4cbefb942db0fb, type: 3}
    colorName: "ve\u013Ek\xFD vzor svetl\xE1"
  - color: {r: 1, g: 1, b: 1, a: 1}
    material: {fileID: 2100000, guid: 84325b4831f27d34494b82c930ff5175, type: 2}
    sprite: {fileID: 21300000, guid: bffbae2e56e641943b0d8589246b670c, type: 3}
    colorName: "mal\xFD vzor b\xE9\u017Eov\xE1"
  - color: {r: 1, g: 1, b: 1, a: 1}
    material: {fileID: 2100000, guid: aa11df8930b07b04fad95702778102ad, type: 2}
    sprite: {fileID: 21300000, guid: da8308fdd9025794597242ff24cdcc3e, type: 3}
    colorName: "mal\xFD vzor \u010Derven\xE1"
  - color: {r: 1, g: 1, b: 1, a: 1}
    material: {fileID: 2100000, guid: df0948a847f661b41994f028cab0fe51, type: 2}
    sprite: {fileID: 21300000, guid: 76d802ace3323fd42b6421e8569e29ea, type: 3}
    colorName: "mal\xFD vzor svetl\xE1"
