%YAML 1.1
%TAG !u! tag:unity3d.com,2011:
--- !u!114 &11400000
MonoBehaviour:
  m_ObjectHideFlags: 0
  m_CorrespondingSourceObject: {fileID: 0}
  m_PrefabInstance: {fileID: 0}
  m_PrefabAsset: {fileID: 0}
  m_GameObject: {fileID: 0}
  m_Enabled: 1
  m_EditorHideFlags: 0
  m_Script: {fileID: 11500000, guid: 8973e6154edcde744841ac45fa8be0e2, type: 3}
  m_Name: Bombay
  m_EditorClassIdentifier: 
  colors:
  - color: {r: 1, g: 1, b: 1, a: 1}
    material: {fileID: 2100000, guid: 8ce749f03a016a7489628f52a53ad875, type: 2}
    sprite: {fileID: 21300000, guid: db8f4bfad40de2a40be959b035f8ba21, type: 3}
    colorName: 2
  - color: {r: 1, g: 1, b: 1, a: 1}
    material: {fileID: 2100000, guid: bf3cf1c27f94d1e43997d7c0b2cca1b7, type: 2}
    sprite: {fileID: 21300000, guid: bea5950b3e9a417478d2fc47af79c264, type: 3}
    colorName: 4
  - color: {r: 1, g: 1, b: 1, a: 1}
    material: {fileID: 2100000, guid: d2306d35d72e8a74f89d3336dbc84ee0, type: 2}
    sprite: {fileID: 21300000, guid: 6cd7b109850643345acae9a1bb551f66, type: 3}
    colorName: 6
  - color: {r: 1, g: 1, b: 1, a: 1}
    material: {fileID: 2100000, guid: 4cce5cf9580e39d4a86d5ff87d7cb8f9, type: 2}
    sprite: {fileID: 21300000, guid: 9190659bb9f5fd24c917d279f6d4b010, type: 3}
    colorName: 14
  - color: {r: 1, g: 1, b: 1, a: 1}
    material: {fileID: 2100000, guid: 1f5a422a11cb24c47ac66512f5989bec, type: 2}
    sprite: {fileID: 21300000, guid: 9f1fe400642b11941b0eabb860c98cf2, type: 3}
    colorName: 24
  - color: {r: 1, g: 1, b: 1, a: 1}
    material: {fileID: 2100000, guid: 5d9df5a8877fdd34c8d34bb2edf56e31, type: 2}
    sprite: {fileID: 21300000, guid: 72a7abed81bd4aa489355ceecc6e2d92, type: 3}
    colorName: 26
  - color: {r: 1, g: 1, b: 1, a: 1}
    material: {fileID: 2100000, guid: 4909334daac6b9e44ab545f79b83f0e1, type: 2}
    sprite: {fileID: 21300000, guid: 88d6ee3edade46b4e96316312bf26953, type: 3}
    colorName: 33
  - color: {r: 1, g: 1, b: 1, a: 1}
    material: {fileID: 2100000, guid: 8d137373417b0f84f93e9a602bdbf44f, type: 2}
    sprite: {fileID: 21300000, guid: e90e8caf5547b9c43aea01148f7ae2da, type: 3}
    colorName: 34
  - color: {r: 1, g: 1, b: 1, a: 1}
    material: {fileID: 2100000, guid: 75c0760dbcf74724cb0de5b34caeb1ca, type: 2}
    sprite: {fileID: 21300000, guid: 023530e38e9493642aed15ddc191d919, type: 3}
    colorName: 37
  - color: {r: 1, g: 1, b: 1, a: 1}
    material: {fileID: 2100000, guid: 2fb332d2c7092794c861f6e9eae47e5d, type: 2}
    sprite: {fileID: 21300000, guid: 183c27630a3a08647b3e6b14adcab92c, type: 3}
    colorName: 38
  - color: {r: 1, g: 1, b: 1, a: 1}
    material: {fileID: 2100000, guid: cf098f264ce9ee5489f9bafdc59f7dab, type: 2}
    sprite: {fileID: 21300000, guid: 9804d94c60007304286a41b90e3149c0, type: 3}
    colorName: 39
  - color: {r: 1, g: 1, b: 1, a: 1}
    material: {fileID: 2100000, guid: 7245709844e689a4f97e34c9eac7e9e1, type: 2}
    sprite: {fileID: 21300000, guid: 7fb5e794983a5874d8e16cae0351b6ad, type: 3}
    colorName: 56
  - color: {r: 1, g: 1, b: 1, a: 1}
    material: {fileID: 2100000, guid: 84af7b21f7c6e3949801dadc727c21c5, type: 2}
    sprite: {fileID: 21300000, guid: 0a99d4c652cdc994cae280ec6597d526, type: 3}
    colorName: 99
  orderByName: 1
