%YAML 1.1
%TAG !u! tag:unity3d.com,2011:
--- !u!114 &11400000
MonoBehaviour:
  m_ObjectHideFlags: 0
  m_CorrespondingSourceObject: {fileID: 0}
  m_PrefabInstance: {fileID: 0}
  m_PrefabAsset: {fileID: 0}
  m_GameObject: {fileID: 0}
  m_Enabled: 1
  m_EditorHideFlags: 0
  m_Script: {fileID: 11500000, guid: 8973e6154edcde744841ac45fa8be0e2, type: 3}
  m_Name: Boston
  m_EditorClassIdentifier: 
  colors:
  - color: {r: 1, g: 1, b: 1, a: 1}
    material: {fileID: 2100000, guid: 4a2ffcdc997025f4a82c1e8a17f1b051, type: 2}
    sprite: {fileID: 21300000, guid: b73f152fd0940f044a4f8c6b41a6fc74, type: 3}
    colorName: "b\xE9\u017Eov\xE1"
  - color: {r: 1, g: 1, b: 1, a: 1}
    material: {fileID: 2100000, guid: 2759a6a0d5e3c0f4692abe856911499a, type: 2}
    sprite: {fileID: 21300000, guid: f2fbd2581a472674588c0fcfd665fd56, type: 3}
    colorName: "hned\xE1"
  - color: {r: 1, g: 1, b: 1, a: 1}
    material: {fileID: 2100000, guid: c373d63d0f3674849903e60716675b02, type: 2}
    sprite: {fileID: 21300000, guid: 5c0c360359260cf4fa39dbdce5b3563b, type: 3}
    colorName: "oran\u017Eov\xE1"
  - color: {r: 1, g: 1, b: 1, a: 1}
    material: {fileID: 2100000, guid: 858ddbb32aa59974ebf3cc9017ebaffc, type: 2}
    sprite: {fileID: 21300000, guid: deb2c18d0635b1241861729476818926, type: 3}
    colorName: "\u0161ed\xE1"
  - color: {r: 1, g: 1, b: 1, a: 1}
    material: {fileID: 2100000, guid: 81b565194c624bf448e02ac6dfabacdd, type: 2}
    sprite: {fileID: 21300000, guid: 25cfbae39f3f7cd43a9a58da454ff4b6, type: 3}
    colorName: "v\xEDnov\xE1"
  - color: {r: 1, g: 1, b: 1, a: 1}
    material: {fileID: 2100000, guid: d491e159bbf75d843b1dbf7f2b615ac6, type: 2}
    sprite: {fileID: 21300000, guid: 182ad6cfe62b379488cb4cefc3d099a2, type: 3}
    colorName: "zelen\xE1"
