%YAML 1.1
%TAG !u! tag:unity3d.com,2011:
--- !u!114 &11400000
MonoBehaviour:
  m_ObjectHideFlags: 0
  m_CorrespondingSourceObject: {fileID: 0}
  m_PrefabInstance: {fileID: 0}
  m_PrefabAsset: {fileID: 0}
  m_GameObject: {fileID: 0}
  m_Enabled: 1
  m_EditorHideFlags: 0
  m_Script: {fileID: 11500000, guid: 8973e6154edcde744841ac45fa8be0e2, type: 3}
  m_Name: ColorSet
  m_EditorClassIdentifier: 
  colors:
  - color: {r: 1, g: 1, b: 1, a: 1}
    colorName: 01
  - color: {r: 0.7924528, g: 0.7887148, b: 0.7737629, a: 1}
    colorName: 61
  - color: {r: 0.8352942, g: 0.8000001, b: 0.76470596, a: 1}
    colorName: 02
  - color: {r: 0.7490196, g: 0.6862745, b: 0.65882355, a: 1}
    colorName: 03
  - color: {r: 0.7843138, g: 0.7176471, b: 0.6745098, a: 1}
    colorName: 04
  - color: {r: 0.62352943, g: 0.5647059, b: 0.5372549, a: 1}
    colorName: 05
  - color: {r: 0.7490196, g: 0.7254902, b: 0.63529414, a: 1}
    colorName: 06
  - color: {r: 0.65882355, g: 0.6431373, b: 0.6313726, a: 1}
    colorName: 07
  - color: {r: 0.61960787, g: 0.56078434, b: 0.49803925, a: 1}
    colorName: 08
  - color: {r: 0.49411768, g: 0.47058827, b: 0.42352945, a: 1}
    colorName: 09
  - color: {r: 0.57254905, g: 0.53333336, b: 0.49411768, a: 1}
    colorName: 10
  - color: {r: 0.3773585, g: 0.3755785, b: 0.36845854, a: 1}
    colorName: 62
  - color: {r: 0.4784314, g: 0.4039216, b: 0.34509805, a: 1}
    colorName: 11
  - color: {r: 0.46274513, g: 0.40784317, b: 0.39607847, a: 1}
    colorName: 12
  - color: {r: 0.34117648, g: 0.28627452, b: 0.2784314, a: 1}
    colorName: 13
  - color: {r: 0.3803922, g: 0.35686275, b: 0.34117648, a: 1}
    colorName: 14
  - color: {r: 0.6226415, g: 0.62034774, b: 0.6020826, a: 1}
    colorName: 60
  - color: {r: 0.5254902, g: 0.52156866, b: 0.5411765, a: 1}
    colorName: 15
  - color: {r: 0.5686275, g: 0.6156863, b: 0.6392157, a: 1}
    colorName: 22
  - color: {r: 0.23529413, g: 0.23529413, b: 0.24313727, a: 1}
    colorName: 16
  - color: {r: 0.027450982, g: 0.15686275, b: 0.18823531, a: 1}
    colorName: 23
  - color: {r: 0.26666668, g: 0.3137255, b: 0.35686275, a: 1}
    colorName: 24
  - color: {r: 0.20784315, g: 0.13333334, b: 0.20392159, a: 1}
    colorName: 21
  - color: {r: 0.2272161, g: 0.4339623, b: 0.39742815, a: 1}
    colorName: 65
  - color: {r: 0.0627451, g: 0.32156864, b: 0.3921569, a: 1}
    colorName: 25
  - color: {r: 0.3994892, g: 0.8207547, b: 0.32907617, a: 1}
    colorName: 54
  - color: {r: 0.23417787, g: 0.9622642, b: 0.022694906, a: 1}
    colorName: 67
  - color: {r: 1, g: 0.8941821, b: 0.051886797, a: 1}
    colorName: 59
  - color: {r: 1, g: 0.7250599, b: 0.0047169924, a: 1}
    colorName: 64
  - color: {r: 0.79215693, g: 0.53333336, b: 0.23529413, a: 1}
    colorName: 26
  - color: {r: 0.49803925, g: 0.37254903, b: 0.13333334, a: 1}
    colorName: 27
  - color: {r: 0.8113208, g: 0.61711717, b: 0.10332859, a: 1}
    colorName: 63
  - color: {r: 0.70980394, g: 0.7019608, b: 0.50980395, a: 1}
    colorName: 28
  - color: {r: 0.7372549, g: 0.6117647, b: 0.35686275, a: 1}
    colorName: 29
  - color: {r: 0.47450984, g: 0.41960788, b: 0.2392157, a: 1}
    colorName: 30
  - color: {r: 0.34509805, g: 0.34117648, b: 0.40000004, a: 1}
    colorName: 31
  - color: {r: 0.7735849, g: 0.49991098, b: 0.66779864, a: 1}
    colorName: 66
  - color: {r: 0.57254905, g: 0.45098042, b: 0.49411768, a: 1}
    colorName: 17
  - color: {r: 0.5529412, g: 0.38823533, b: 0.40000004, a: 1}
    colorName: 32
  - color: {r: 0.38431376, g: 0.2784314, b: 0.2901961, a: 1}
    colorName: 33
  - color: {r: 0.69803923, g: 0.21568629, b: 0.2627451, a: 1}
    colorName: 18
  - color: {r: 0.6392157, g: 0.28627452, b: 0.13725491, a: 1}
    colorName: 34
  - color: {r: 0.5058824, g: 0.2392157, b: 0.18823531, a: 1}
    colorName: 35
  - color: {r: 0.54509807, g: 0.1764706, b: 0.13333334, a: 1}
    colorName: 36
  - color: {r: 0.972549, g: 0.1575399, b: 0.1137255, a: 1}
    colorName: 58
  - color: {r: 0.34117648, g: 0.19215688, b: 0.16078432, a: 1}
    colorName: 37
  - color: {r: 0.34509805, g: 0.08627451, b: 0.18823531, a: 1}
    colorName: 20
  - color: {r: 0.43921572, g: 0.058823533, b: 0.1137255, a: 1}
    colorName: 19
  - color: {r: 0.3019608, g: 0.2509804, b: 0.22352943, a: 1}
    colorName: 39
  - color: {r: 0.32941177, g: 0.27058825, b: 0.227451, a: 1}
    colorName: 38
  - color: {r: 0.2627451, g: 0.19607845, b: 0.18039216, a: 1}
    colorName: 40
  - color: {r: 0.23529413, g: 0.20784315, b: 0.18823531, a: 1}
    colorName: 41
  - color: {r: 0.24313727, g: 0.22352943, b: 0.20784315, a: 1}
    colorName: 42
  - color: {r: 0.23137257, g: 0.24313727, b: 0.23529413, a: 1}
    colorName: 43
  - color: {r: 0.114587024, g: 0.93218863, b: 0.9716981, a: 1}
    colorName: 57
  - color: {r: 0.110137045, g: 0.49741644, b: 0.9339623, a: 1}
    colorName: 56
  - color: {r: 0.09927912, g: 0.30048048, b: 0.9150943, a: 1}
    colorName: 55
  - color: {r: 0.20000002, g: 0.21176472, b: 0.3647059, a: 1}
    colorName: 44
  - color: {r: 0.18039216, g: 0.11764707, b: 0.20392159, a: 1}
    colorName: 45
  - color: {r: 0.16078432, g: 0.18039216, b: 0.22352943, a: 1}
    colorName: 46
  - color: {r: 0.09019608, g: 0.121568635, b: 0.1764706, a: 1}
    colorName: 47
  - color: {r: 0.1137255, g: 0.11764707, b: 0.13333334, a: 1}
    colorName: 48
  - color: {r: 0.13725491, g: 0.043137256, b: 0.058823533, a: 1}
    colorName: 49
  - color: {r: 0.11764707, g: 0.07450981, b: 0.06666667, a: 1}
    colorName: 50
  - color: {r: 0.08235294, g: 0.04705883, b: 0.039215688, a: 1}
    colorName: 51
  - color: {r: 0.04705883, g: 0.04705883, b: 0.04705883, a: 1}
    colorName: 52
  - color: {r: 0, g: 0, b: 0, a: 1}
    colorName: 53
