%YAML 1.1
%TAG !u! tag:unity3d.com,2011:
--- !u!114 &11400000
MonoBehaviour:
  m_ObjectHideFlags: 0
  m_CorrespondingSourceObject: {fileID: 0}
  m_PrefabInstance: {fileID: 0}
  m_PrefabAsset: {fileID: 0}
  m_GameObject: {fileID: 0}
  m_Enabled: 1
  m_EditorHideFlags: 0
  m_Script: {fileID: 11500000, guid: d272be3b58095a541a415096c0f337ea, type: 3}
  m_Name: Catania
  m_EditorClassIdentifier: 
  material: {fileID: 2100000, guid: 01e22a5a7f06c7a43a8dc6efd8e7bf1c, type: 2}
  materialShelf: {fileID: 2100000, guid: 01e22a5a7f06c7a43a8dc6efd8e7bf1c, type: 2}
  image: {fileID: 21300000, guid: a9af948e7a458f44eb01d63fd9fb3ddb, type: 3}
  materialName: Catania
  colors: {fileID: 11400000, guid: e335ea8129e08be4e85c7ef91b2dad4e, type: 2}
