%YAML 1.1
%TAG !u! tag:unity3d.com,2011:
--- !u!114 &11400000
MonoBehaviour:
  m_ObjectHideFlags: 0
  m_CorrespondingSourceObject: {fileID: 0}
  m_PrefabInstance: {fileID: 0}
  m_PrefabAsset: {fileID: 0}
  m_GameObject: {fileID: 0}
  m_Enabled: 1
  m_EditorHideFlags: 0
  m_Script: {fileID: 11500000, guid: 0c9192c68b4ee7a42a394ff0045d5b36, type: 3}
  m_Name: Slide
  m_EditorClassIdentifier: 
  modelName: Slide
  modelDescription: 
  modelPrice: 0
  parts:
  - S1
  - S2
  - S3
  - SR
  - SRX
  - S_Ottoman 1
  - S_Ottoman
  - S_Podrucka 1
  - S_Podrucka
  image: {fileID: 21300000, guid: a1fc43d9bdc5b314b9afeba5f7e45e63, type: 3}
  imageUrl: 
  imageStock: {fileID: 21300000, guid: a1fc43d9bdc5b314b9afeba5f7e45e63, type: 3}
  materials:
  - {fileID: 11400000, guid: 78b77a387b2156a409fc7ac8efa92e85, type: 2}
  - {fileID: 11400000, guid: a23277b527552184cb97a28551de21d1, type: 2}
  - {fileID: 11400000, guid: c9826f1224f631c4a844df0f385925de, type: 2}
  - {fileID: 11400000, guid: f6e1b50e74fbb594bbeb977a7d3c61cf, type: 2}
  - {fileID: 11400000, guid: 7b986cf26e787d74496c123354a1d7f5, type: 2}
  - {fileID: 11400000, guid: d5202ef8f7844e349939e52b7f11b4b3, type: 2}
  materialDefaultIndex: 0
  materialsLegs:
  - {fileID: 11400000, guid: e6acedf0724430343badd4224014d33b, type: 2}
  - {fileID: 11400000, guid: 2b2d8d0885e92944aa30d52db2c9bd98, type: 2}
  - {fileID: 11400000, guid: ef4d058e90cc7f9429f13192e5e51b52, type: 2}
  - {fileID: 11400000, guid: 28f53ac4a10aca8439b82ab03f2b4702, type: 2}
  - {fileID: 11400000, guid: bfec21f031550c84b88b59de36997b34, type: 2}
  - {fileID: 11400000, guid: 25f4f0b0b7dab7741897e38a43d5b4c3, type: 2}
  - {fileID: 11400000, guid: 49ef6aec58515d440b297f3a18018fd9, type: 2}
  - {fileID: 11400000, guid: 0348fe20ec0485b469c5a00be4daa0a8, type: 2}
  - {fileID: 11400000, guid: 971154c6ddb9bb1448eb6db1979973c2, type: 2}
  - {fileID: 11400000, guid: e264ea9f4bf319145a934223b2b05f44, type: 2}
  materialCount: 1
  legsCount: 1
  sewingCount: 1
  assetBundleVersion: 7
  variants: []
