%YAML 1.1
%TAG !u! tag:unity3d.com,2011:
--- !u!114 &11400000
MonoBehaviour:
  m_ObjectHideFlags: 0
  m_CorrespondingSourceObject: {fileID: 0}
  m_PrefabInstance: {fileID: 0}
  m_PrefabAsset: {fileID: 0}
  m_GameObject: {fileID: 0}
  m_Enabled: 1
  m_EditorHideFlags: 0
  m_Script: {fileID: 11500000, guid: b2776e1933aa44d4ea6eaff0894388aa, type: 3}
  m_Name: rozkladnaspanie
  m_EditorClassIdentifier: 
  id: rozkladnaspanie
  localizations:
  - language: sk
    text: Rozklad na spanie
