%YAML 1.1
%TAG !u! tag:unity3d.com,2011:
--- !u!114 &11400000
MonoBehaviour:
  m_ObjectHideFlags: 0
  m_CorrespondingSourceObject: {fileID: 0}
  m_PrefabInstance: {fileID: 0}
  m_PrefabAsset: {fileID: 0}
  m_GameObject: {fileID: 0}
  m_Enabled: 1
  m_EditorHideFlags: 0
  m_Script: {fileID: 11500000, guid: d272be3b58095a541a415096c0f337ea, type: 3}
  m_Name: Storm
  m_EditorClassIdentifier: 
  material: {fileID: 2100000, guid: a50984f8d39002647a2c04b062a2d71c, type: 2}
  materialShelf: {fileID: 0}
  image: {fileID: 21300000, guid: 19d01c87a69aacf47956665eede6956d, type: 3}
  materialName: Storm
  colors: {fileID: 11400000, guid: ab409619674bc844689ed3bb0206e4f5, type: 2}
