%YAML 1.1
%TAG !u! tag:unity3d.com,2011:
--- !u!114 &11400000
MonoBehaviour:
  m_ObjectHideFlags: 0
  m_CorrespondingSourceObject: {fileID: 0}
  m_PrefabInstance: {fileID: 0}
  m_PrefabAsset: {fileID: 0}
  m_GameObject: {fileID: 0}
  m_Enabled: 1
  m_EditorHideFlags: 0
  m_Script: {fileID: 11500000, guid: d272be3b58095a541a415096c0f337ea, type: 3}
  m_Name: Ohio
  m_EditorClassIdentifier: 
  material: {fileID: 2100000, guid: 513932d026aaa764ca24a4a8714bb6fd, type: 2}
  materialShelf: {fileID: 0}
  image: {fileID: 21300000, guid: 6e639edf8e4d42a4ea0e7a2a54607506, type: 3}
  materialName: Ohio
  colors: {fileID: 11400000, guid: 01a545cb5d6e4054fa890437dc4b2177, type: 2}
