%YAML 1.1
%TAG !u! tag:unity3d.com,2011:
--- !u!114 &11400000
MonoBehaviour:
  m_ObjectHideFlags: 0
  m_CorrespondingSourceObject: {fileID: 0}
  m_PrefabInstance: {fileID: 0}
  m_PrefabAsset: {fileID: 0}
  m_GameObject: {fileID: 0}
  m_Enabled: 1
  m_EditorHideFlags: 0
  m_Script: {fileID: 11500000, guid: 0c9192c68b4ee7a42a394ff0045d5b36, type: 3}
  m_Name: Infinity
  m_EditorClassIdentifier: 
  modelName: Infinity
  modelDescription: 
  modelPrice: 0
  parts: []
  image: {fileID: 21300000, guid: 77e397c7385b6de409f293f839951237, type: 3}
  imageUrl: 
  imageStock: {fileID: 0}
  materials:
  - {fileID: 0}
  - {fileID: 0}
  - {fileID: 0}
  - {fileID: 11400000, guid: 7372cd1571c6c294183e6184a177b35d, type: 2}
  - {fileID: 11400000, guid: 2875b9ca58b83af4086dc950d36ae550, type: 2}
  - {fileID: 11400000, guid: d0dbe781fbc25454796e9734854a140c, type: 2}
  - {fileID: 11400000, guid: 2c6af167deb9c8840b48dd1df1387d0b, type: 2}
  - {fileID: 11400000, guid: 0e81a19206a571e469ab533a2ecb7f6b, type: 2}
  materialDefaultIndex: 0
  materialsLegs: []
  materialsLegs2: []
  materialCount: 1
  legsCount: 1
  sewingCount: 1
  assetBundleVersion: 15
  variants:
  - {fileID: 11400000, guid: 59f78997e9b25744d895c0c44c1702f7, type: 2}
  - {fileID: 11400000, guid: 6145f91ebab036d498d9c7fdc14030e7, type: 2}
  textureNormalSewing: []
  spriteLegs: []
