%YAML 1.1
%TAG !u! tag:unity3d.com,2011:
--- !u!114 &11400000
MonoBehaviour:
  m_ObjectHideFlags: 0
  m_CorrespondingSourceObject: {fileID: 0}
  m_PrefabInstance: {fileID: 0}
  m_PrefabAsset: {fileID: 0}
  m_GameObject: {fileID: 0}
  m_Enabled: 1
  m_EditorHideFlags: 0
  m_Script: {fileID: 11500000, guid: 0c9192c68b4ee7a42a394ff0045d5b36, type: 3}
  m_Name: Join_it
  m_EditorClassIdentifier: 
  modelName: join_it
  modelDescription: join_it
  modelPrice: 0
  parts:
  - j_it_1ALR60
  - j_it_1ALR70
  - j_it_1ALR80
  - j_it_1ALR90
  - j_it_ARM_L
  - j_it_ARM_P
  - j_it_HOCKER_120x60
  - j_it_HOCKER_80x80
  - j_it_LCH_100
  - j_it_LCH_70
  - j_it_OTTOMAN 1
  - j_it_OTTOMAN
  - j_it_ROH
  image: {fileID: 21300000, guid: 689b6a40e85b5ea4390f5804d46529e6, type: 3}
  imageUrl: 
  imageStock: {fileID: 21300000, guid: 689b6a40e85b5ea4390f5804d46529e6, type: 3}
  materials:
  - {fileID: 11400000, guid: 4c96de01292a2c642ad6d8f22afe1913, type: 2}
  - {fileID: 11400000, guid: 48e2c20bccefd3346b8dbf5718fadc2a, type: 2}
  - {fileID: 11400000, guid: 901342957a1638b4c9cc3672ee01ae5c, type: 2}
  - {fileID: 11400000, guid: 7749ed7a879e5bb499b602cf6d9cefe1, type: 2}
  - {fileID: 11400000, guid: 5edbb10b2352276418eda871cc223be5, type: 2}
  - {fileID: 11400000, guid: 4503b7f143b46764dbe1135bba1fa4a7, type: 2}
  - {fileID: 11400000, guid: 52e4fd4fdca22bf4f9df4722206eddd1, type: 2}
  - {fileID: 11400000, guid: b4cfb8f0c6b2fd542a21e4e4150b18ac, type: 2}
  - {fileID: 11400000, guid: 2cd36b191f33635428943137a8679ea0, type: 2}
  - {fileID: 11400000, guid: b4dd49c6c336bc741abe444531ebb4ca, type: 2}
  - {fileID: 11400000, guid: 305ae9558e197e4418515bed25f474f6, type: 2}
  - {fileID: 11400000, guid: d1bc95a6a3e626242b2968ded1b61307, type: 2}
  - {fileID: 11400000, guid: 23ac32fe60900b14eaa7f2816354a4e9, type: 2}
  - {fileID: 11400000, guid: 6c82f6753ba5bac40ab8e0c088227b8f, type: 2}
  - {fileID: 11400000, guid: 684b6d1e9e2de1247977c56bcf7a579e, type: 2}
  - {fileID: 11400000, guid: 12172c8845342d949b77d4fb757ab733, type: 2}
  - {fileID: 11400000, guid: dfa7bb087619e9d448c07abc16b43c9a, type: 2}
  - {fileID: 11400000, guid: dc0a2052764b0a34aad4415ee2d2c6b4, type: 2}
  - {fileID: 11400000, guid: cbdb1bcd583d61b46b01c2d41262272b, type: 2}
  - {fileID: 11400000, guid: bcd941b518ab8c54ebb35bb80254ac4d, type: 2}
  - {fileID: 11400000, guid: e90996e2e3a1af44cabc3e70e2f66c60, type: 2}
  - {fileID: 11400000, guid: 975d7b6e275b510499d9b700d57c6520, type: 2}
  - {fileID: 11400000, guid: 97459ec5554eb0b4faf41f6ea8861939, type: 2}
  - {fileID: 11400000, guid: faaf941457a971740bfea99d4c2c3064, type: 2}
  - {fileID: 11400000, guid: 8dbe6f7badd69164caa46b67fa8bec1c, type: 2}
  - {fileID: 11400000, guid: 7bb39a848e4773b46b93b6e4df24db7e, type: 2}
  - {fileID: 11400000, guid: 947ce3aa53650fe4aa88c67846907250, type: 2}
  - {fileID: 11400000, guid: f0686e572ad6e4c4b824c44905ca0624, type: 2}
  - {fileID: 11400000, guid: 5c5bdc34f50df0f4787e326ef323b001, type: 2}
  - {fileID: 11400000, guid: 7da4c6f8b9ebe7e4da19f3cc6a3a2245, type: 2}
  - {fileID: 11400000, guid: 0f6a88837fdd88e4da93cdb0ca292fe5, type: 2}
  - {fileID: 11400000, guid: 76669e8a6d9e5354fb23a8bd4206183c, type: 2}
  - {fileID: 11400000, guid: de17233a71722024198875e7cf51fa52, type: 2}
  - {fileID: 11400000, guid: fe2efb5f79c28734aa9aa0a8fb5c59e9, type: 2}
  - {fileID: 11400000, guid: 78046423ab6a3bd49999a4451a3ed175, type: 2}
  - {fileID: 11400000, guid: 71ff8d42d5e303c4daf5f52a8cec825f, type: 2}
  - {fileID: 11400000, guid: 7372cd1571c6c294183e6184a177b35d, type: 2}
  - {fileID: 11400000, guid: 0fee10591797d1642b89737061bc88f3, type: 2}
  - {fileID: 11400000, guid: 0e81a19206a571e469ab533a2ecb7f6b, type: 2}
  - {fileID: 11400000, guid: 2875b9ca58b83af4086dc950d36ae550, type: 2}
  - {fileID: 11400000, guid: 5fd94665cb142424da4279ab92b8de98, type: 2}
  - {fileID: 11400000, guid: d0dbe781fbc25454796e9734854a140c, type: 2}
  - {fileID: 11400000, guid: 8505992430ffc73498c7e42a81b40a5c, type: 2}
  - {fileID: 11400000, guid: 624fe99bfe82a1b4897cc3f325a25e21, type: 2}
  - {fileID: 11400000, guid: 3f569eb0ed036094a839d7b31a6452a6, type: 2}
  - {fileID: 11400000, guid: 2896a76c4b3569e49ac6569d67a35416, type: 2}
  - {fileID: 11400000, guid: 060785f8d4a0ed948b1adc18e5c516e9, type: 2}
  - {fileID: 11400000, guid: 2c6af167deb9c8840b48dd1df1387d0b, type: 2}
  - {fileID: 11400000, guid: a19da0bcb85974142bfcc5379624fbc6, type: 2}
  materialDefaultIndex: 0
  materialsLegs:
  - {fileID: 11400000, guid: 2b2d8d0885e92944aa30d52db2c9bd98, type: 2}
  - {fileID: 11400000, guid: e6acedf0724430343badd4224014d33b, type: 2}
  - {fileID: 11400000, guid: ef4d058e90cc7f9429f13192e5e51b52, type: 2}
  - {fileID: 11400000, guid: 28f53ac4a10aca8439b82ab03f2b4702, type: 2}
  - {fileID: 11400000, guid: bfec21f031550c84b88b59de36997b34, type: 2}
  - {fileID: 11400000, guid: 25f4f0b0b7dab7741897e38a43d5b4c3, type: 2}
  - {fileID: 11400000, guid: 49ef6aec58515d440b297f3a18018fd9, type: 2}
  - {fileID: 11400000, guid: 0348fe20ec0485b469c5a00be4daa0a8, type: 2}
  - {fileID: 11400000, guid: 971154c6ddb9bb1448eb6db1979973c2, type: 2}
  - {fileID: 11400000, guid: e264ea9f4bf319145a934223b2b05f44, type: 2}
  materialsLegs2: []
  materialCount: 2
  legsCount: 2
  sewingCount: 1
  assetBundleVersion: 15
  variants: []
  textureNormalSewing: []
  spriteLegs:
  - {fileID: 21300000, guid: 0e4ce99d696bec34da33916211ec8bcb, type: 3}
  - {fileID: 21300000, guid: 8d49f8e999abd87438cd24eeac7f69ef, type: 3}
