%YAML 1.1
%TAG !u! tag:unity3d.com,2011:
--- !u!114 &11400000
MonoBehaviour:
  m_ObjectHideFlags: 0
  m_CorrespondingSourceObject: {fileID: 0}
  m_PrefabInstance: {fileID: 0}
  m_PrefabAsset: {fileID: 0}
  m_GameObject: {fileID: 0}
  m_Enabled: 1
  m_EditorHideFlags: 0
  m_Script: {fileID: 11500000, guid: 8973e6154edcde744841ac45fa8be0e2, type: 3}
  m_Name: Cortina
  m_EditorClassIdentifier: 
  colors:
  - color: {r: 0.91372555, g: 0.8862746, b: 0.86666673, a: 1}
    material: {fileID: 0}
    sprite: {fileID: 0}
    colorName: 1
  - color: {r: 0.8862746, g: 0.8078432, b: 0.76470596, a: 1}
    material: {fileID: 0}
    sprite: {fileID: 0}
    colorName: 2
  - color: {r: 0.8862746, g: 0.77647066, b: 0.654902, a: 1}
    material: {fileID: 0}
    sprite: {fileID: 0}
    colorName: 3
  - color: {r: 0.6039216, g: 0.5019608, b: 0.48235297, a: 1}
    material: {fileID: 0}
    sprite: {fileID: 0}
    colorName: 4
  - color: {r: 0.37647063, g: 0.3137255, b: 0.27058825, a: 1}
    material: {fileID: 0}
    sprite: {fileID: 0}
    colorName: 5
  - color: {r: 0.52156866, g: 0.30588236, b: 0.54901963, a: 1}
    material: {fileID: 0}
    sprite: {fileID: 0}
    colorName: 6
  - color: {r: 0.95294124, g: 0.73333335, b: 0.7803922, a: 1}
    material: {fileID: 0}
    sprite: {fileID: 0}
    colorName: 7
  - color: {r: 0.8470589, g: 0.8352942, b: 1, a: 1}
    material: {fileID: 0}
    sprite: {fileID: 0}
    colorName: 8
  - color: {r: 1, g: 0.8745099, b: 0.27058825, a: 1}
    material: {fileID: 0}
    sprite: {fileID: 0}
    colorName: 9
  - color: {r: 1, g: 0.9686275, b: 0.69411767, a: 1}
    material: {fileID: 0}
    sprite: {fileID: 0}
    colorName: 10
  - color: {r: 0.7803922, g: 0.8352942, b: 0.8588236, a: 1}
    material: {fileID: 0}
    sprite: {fileID: 0}
    colorName: 11
  - color: {r: 0.57254905, g: 0.76470596, b: 0.8862746, a: 1}
    material: {fileID: 0}
    sprite: {fileID: 0}
    colorName: 12
  - color: {r: 0.37254903, g: 0.5921569, b: 0.6901961, a: 1}
    material: {fileID: 0}
    sprite: {fileID: 0}
    colorName: 13
  - color: {r: 0.9333334, g: 0.9333334, b: 0.9333334, a: 1}
    material: {fileID: 0}
    sprite: {fileID: 0}
    colorName: 14
  - color: {r: 0.7058824, g: 0.72156864, b: 0.7372549, a: 1}
    material: {fileID: 0}
    sprite: {fileID: 0}
    colorName: 15
  - color: {r: 0.68235296, g: 0.6666667, b: 0.7176471, a: 1}
    material: {fileID: 0}
    sprite: {fileID: 0}
    colorName: 16
  - color: {r: 0.27058825, g: 0.38823533, b: 0.54901963, a: 1}
    material: {fileID: 0}
    sprite: {fileID: 0}
    colorName: 17
  - color: {r: 0.227451, g: 0.21960786, b: 0.3019608, a: 1}
    material: {fileID: 0}
    sprite: {fileID: 0}
    colorName: 18
  - color: {r: 0.1137255, g: 0.10196079, b: 0.13333334, a: 1}
    material: {fileID: 0}
    sprite: {fileID: 0}
    colorName: 19
  orderByName: 0
