%YAML 1.1
%TAG !u! tag:unity3d.com,2011:
--- !u!114 &11400000
MonoBehaviour:
  m_ObjectHideFlags: 0
  m_CorrespondingSourceObject: {fileID: 0}
  m_PrefabInstance: {fileID: 0}
  m_PrefabAsset: {fileID: 0}
  m_GameObject: {fileID: 0}
  m_Enabled: 1
  m_EditorHideFlags: 0
  m_Script: {fileID: 11500000, guid: 8973e6154edcde744841ac45fa8be0e2, type: 3}
  m_Name: Dante
  m_EditorClassIdentifier: 
  colors:
  - color: {r: 1, g: 1, b: 1, a: 1}
    material: {fileID: 2100000, guid: 3225e83be2ebb174db1121b2d716872a, type: 2}
    sprite: {fileID: 21300000, guid: f651fdd3682e267459f4c0b75aacfadc, type: 3}
    colorName: Coffee
  - color: {r: 1, g: 1, b: 1, a: 1}
    material: {fileID: 2100000, guid: 83dabc403aeb9a744a852d6851c72a5b, type: 2}
    sprite: {fileID: 21300000, guid: 8f2d6224c021b2b41b1976554f1467c2, type: 3}
    colorName: Flannel
  - color: {r: 1, g: 1, b: 1, a: 1}
    material: {fileID: 2100000, guid: fc23e57ac07b43247a5105a3ec8666c4, type: 2}
    sprite: {fileID: 21300000, guid: 737f5f8cbf87c0b409be2a1b45f21a7c, type: 3}
    colorName: Chrom
  - color: {r: 1, g: 1, b: 1, a: 1}
    material: {fileID: 2100000, guid: 2c728733f7c83f54ca29a0466acaf7a5, type: 2}
    sprite: {fileID: 21300000, guid: 5ce5900bb1177f04f89e796f60858d42, type: 3}
    colorName: Passion
  - color: {r: 1, g: 1, b: 1, a: 1}
    material: {fileID: 2100000, guid: 0e1ddfa1fce51224891c12847d756c33, type: 2}
    sprite: {fileID: 21300000, guid: c35cdcb286cbfda419e69ab35290848c, type: 3}
    colorName: Prime
  orderByName: 0
