%YAML 1.1
%TAG !u! tag:unity3d.com,2011:
--- !u!114 &11400000
MonoBehaviour:
  m_ObjectHideFlags: 0
  m_CorrespondingSourceObject: {fileID: 0}
  m_PrefabInstance: {fileID: 0}
  m_PrefabAsset: {fileID: 0}
  m_GameObject: {fileID: 0}
  m_Enabled: 1
  m_EditorHideFlags: 0
  m_Script: {fileID: 11500000, guid: 8973e6154edcde744841ac45fa8be0e2, type: 3}
  m_Name: Deluxe
  m_EditorClassIdentifier: 
  colors:
  - color: {r: 0.83921576, g: 0.8078432, b: 0.7803922, a: 1}
    material: {fileID: 0}
    sprite: {fileID: 0}
    colorName: 12 Sahara
  - color: {r: 0.76470596, g: 0.6862745, b: 0.5803922, a: 1}
    material: {fileID: 0}
    sprite: {fileID: 0}
    colorName: 05 Camel
  - color: {r: 0.58431375, g: 0.44705886, b: 0.35686275, a: 1}
    material: {fileID: 0}
    sprite: {fileID: 0}
    colorName: 06 Nougat
  - color: {r: 0.6509804, g: 0.41960788, b: 0.27450982, a: 1}
    material: {fileID: 0}
    sprite: {fileID: 0}
    colorName: 08 Brown
  - color: {r: 0.5176471, g: 0.4431373, b: 0.3921569, a: 1}
    material: {fileID: 0}
    sprite: {fileID: 0}
    colorName: 260 Choco
  - color: {r: 0.34117648, g: 0.2784314, b: 0.2901961, a: 1}
    material: {fileID: 0}
    sprite: {fileID: 0}
    colorName: 210 Espresso
  - color: {r: 0.17254902, g: 0.15294118, b: 0.15686275, a: 1}
    material: {fileID: 0}
    sprite: {fileID: 0}
    colorName: 240 Chocolate
  - color: {r: 0.6784314, g: 0.6784314, b: 0.6784314, a: 1}
    material: {fileID: 0}
    sprite: {fileID: 0}
    colorName: 45 Grey
  - color: {r: 0.4039216, g: 0.39607847, b: 0.38823533, a: 1}
    material: {fileID: 0}
    sprite: {fileID: 0}
    colorName: 45 Anthrazit
  - color: {r: 0.43921572, g: 0.43529415, b: 0.46274513, a: 1}
    material: {fileID: 0}
    sprite: {fileID: 0}
    colorName: 44 Steel
  - color: {r: 0.13725491, g: 0.13333334, b: 0.15294118, a: 1}
    material: {fileID: 0}
    sprite: {fileID: 0}
    colorName: 517 Black
  - color: {r: 0.5294118, g: 0.5647059, b: 0.34509805, a: 1}
    material: {fileID: 0}
    sprite: {fileID: 0}
    colorName: 432 Green
  - color: {r: 0.32156864, g: 0.47058827, b: 0.58431375, a: 1}
    material: {fileID: 0}
    sprite: {fileID: 0}
    colorName: 09 Blue
  - color: {r: 0.36078432, g: 0.37254903, b: 0.4431373, a: 1}
    material: {fileID: 0}
    sprite: {fileID: 0}
    colorName: 49 Dark Blue
  - color: {r: 0.45098042, g: 0.37647063, b: 0.41960788, a: 1}
    material: {fileID: 0}
    sprite: {fileID: 0}
    colorName: 80 Aubergine
  - color: {r: 0.5176471, g: 0.2784314, b: 0.30980393, a: 1}
    material: {fileID: 0}
    sprite: {fileID: 0}
    colorName: 35 Cherry
  - color: {r: 0.7725491, g: 0.45098042, b: 0.41960788, a: 1}
    material: {fileID: 0}
    sprite: {fileID: 0}
    colorName: 1898 Chestnut
  - color: {r: 0.7254902, g: 0.37647063, b: 0.2901961, a: 1}
    material: {fileID: 0}
    sprite: {fileID: 0}
    colorName: 52 Dk. Orange
  - color: {r: 0.83921576, g: 0.5372549, b: 0.38431376, a: 1}
    material: {fileID: 0}
    sprite: {fileID: 0}
    colorName: 511 Tera
  - color: {r: 0.81568635, g: 0.64705884, b: 0.46274513, a: 1}
    material: {fileID: 0}
    sprite: {fileID: 0}
    colorName: 520 Mustard
  - color: {r: 0.86666673, g: 0.7176471, b: 0.3137255, a: 1}
    material: {fileID: 0}
    sprite: {fileID: 0}
    colorName: 373 Yellow
