%YAML 1.1
%TAG !u! tag:unity3d.com,2011:
--- !u!114 &11400000
MonoBehaviour:
  m_ObjectHideFlags: 0
  m_CorrespondingSourceObject: {fileID: 0}
  m_PrefabInstance: {fileID: 0}
  m_PrefabAsset: {fileID: 0}
  m_GameObject: {fileID: 0}
  m_Enabled: 1
  m_EditorHideFlags: 0
  m_Script: {fileID: 11500000, guid: 8973e6154edcde744841ac45fa8be0e2, type: 3}
  m_Name: Etna
  m_EditorClassIdentifier: 
  colors:
  - color: {r: 0.990566, g: 0.95247513, b: 0.87375396, a: 1}
    material: {fileID: 0}
    sprite: {fileID: 0}
    colorName: 21
  - color: {r: 0.5803922, g: 0.42352945, b: 0.29411766, a: 1}
    material: {fileID: 0}
    sprite: {fileID: 0}
    colorName: 24
  - color: {r: 0.86274517, g: 0.6039216, b: 0.22352943, a: 1}
    material: {fileID: 0}
    sprite: {fileID: 0}
    colorName: 48
  - color: {r: 0.8396226, g: 0.25889733, b: 0.07524917, a: 1}
    material: {fileID: 0}
    sprite: {fileID: 0}
    colorName: 55
  - color: {r: 0.8000001, g: 0.40000004, b: 0.07058824, a: 1}
    material: {fileID: 0}
    sprite: {fileID: 0}
    colorName: 56
  - color: {r: 0.48235297, g: 0.454902, b: 0.2784314, a: 1}
    material: {fileID: 0}
    sprite: {fileID: 0}
    colorName: 38
  - color: {r: 0.2784314, g: 0.4039216, b: 0.4156863, a: 1}
    material: {fileID: 0}
    sprite: {fileID: 0}
    colorName: 37
  - color: {r: 0.45098042, g: 0.20392159, b: 0.2392157, a: 1}
    material: {fileID: 0}
    sprite: {fileID: 0}
    colorName: 28
  - color: {r: 0.5686275, g: 0.39607847, b: 0.2901961, a: 1}
    material: {fileID: 0}
    sprite: {fileID: 0}
    colorName: 25
  - color: {r: 0.43137258, g: 0.3019608, b: 0.17254902, a: 1}
    material: {fileID: 0}
    sprite: {fileID: 0}
    colorName: 27
  - color: {r: 0.5294118, g: 0.46274513, b: 0.47058827, a: 1}
    material: {fileID: 0}
    sprite: {fileID: 0}
    colorName: 23
  - color: {r: 0.8196079, g: 0.7803922, b: 0.73333335, a: 1}
    material: {fileID: 0}
    sprite: {fileID: 0}
    colorName: 15
  - color: {r: 0.8745099, g: 0.8980393, b: 0.8941177, a: 1}
    material: {fileID: 0}
    sprite: {fileID: 0}
    colorName: 90
  - color: {r: 0.7058824, g: 0.6784314, b: 0.6901961, a: 1}
    material: {fileID: 0}
    sprite: {fileID: 0}
    colorName: 91
  - color: {r: 0.5568628, g: 0.53333336, b: 0.5411765, a: 1}
    material: {fileID: 0}
    sprite: {fileID: 0}
    colorName: 95
  - color: {r: 0.35686275, g: 0.32941177, b: 0.34117648, a: 1}
    material: {fileID: 0}
    sprite: {fileID: 0}
    colorName: 96
  - color: {r: 0.2901961, g: 0.18823531, b: 0.13725491, a: 1}
    material: {fileID: 0}
    sprite: {fileID: 0}
    colorName: 100
  - color: {r: 0.9725491, g: 0.80392164, b: 0.70980394, a: 1}
    material: {fileID: 0}
    sprite: {fileID: 0}
    colorName: 22
  - color: {r: 0.7960785, g: 0.26666668, b: 0.17254902, a: 1}
    material: {fileID: 0}
    sprite: {fileID: 0}
    colorName: 60
  - color: {r: 0.47450984, g: 0.30980393, b: 0.5294118, a: 1}
    material: {fileID: 0}
    sprite: {fileID: 0}
    colorName: 65
  - color: {r: 0.39607847, g: 0.58431375, b: 0.6117647, a: 1}
    material: {fileID: 0}
    sprite: {fileID: 0}
    colorName: 85
  - color: {r: 0.2784314, g: 0.30588236, b: 0.46274513, a: 1}
    material: {fileID: 0}
    sprite: {fileID: 0}
    colorName: 80
  orderByName: 0
