%YAML 1.1
%TAG !u! tag:unity3d.com,2011:
--- !u!114 &11400000
MonoBehaviour:
  m_ObjectHideFlags: 0
  m_CorrespondingSourceObject: {fileID: 0}
  m_PrefabInstance: {fileID: 0}
  m_PrefabAsset: {fileID: 0}
  m_GameObject: {fileID: 0}
  m_Enabled: 1
  m_EditorHideFlags: 0
  m_Script: {fileID: 11500000, guid: 8973e6154edcde744841ac45fa8be0e2, type: 3}
  m_Name: French_Velvet
  m_EditorClassIdentifier: 
  colors:
  - color: {r: 0.92549026, g: 0.9058824, b: 0.8588236, a: 1}
    material: {fileID: 0}
    sprite: {fileID: 0}
    colorName: 672/P
  - color: {r: 0.86666673, g: 0.81568635, b: 0.76470596, a: 1}
    material: {fileID: 0}
    sprite: {fileID: 0}
    colorName: 678/P
  - color: {r: 0.7960785, g: 0.7019608, b: 0.5803922, a: 1}
    material: {fileID: 0}
    sprite: {fileID: 0}
    colorName: 675/P
  - color: {r: 0.7843138, g: 0.6392157, b: 0.32156864, a: 1}
    material: {fileID: 0}
    sprite: {fileID: 0}
    colorName: 652/P
  - color: {r: 0.59607846, g: 0.47058827, b: 0.2901961, a: 1}
    material: {fileID: 0}
    sprite: {fileID: 0}
    colorName: 654/P
  - color: {r: 0.83921576, g: 0.7137255, b: 0.50980395, a: 1}
    material: {fileID: 0}
    sprite: {fileID: 0}
    colorName: 653/P
  - color: {r: 0.58431375, g: 0.53333336, b: 0.45098042, a: 1}
    material: {fileID: 0}
    sprite: {fileID: 0}
    colorName: 656/P
  - color: {r: 0.31764707, g: 0.24705884, b: 0.21960786, a: 1}
    material: {fileID: 0}
    sprite: {fileID: 0}
    colorName: 677/P
  - color: {r: 0.13725491, g: 0.32941177, b: 0.3137255, a: 1}
    material: {fileID: 0}
    sprite: {fileID: 0}
    colorName: 658/P
  - color: {r: 0.52156866, g: 0.6313726, b: 0.3019608, a: 1}
    material: {fileID: 0}
    sprite: {fileID: 0}
    colorName: 657/P
  - color: {r: 0.78823537, g: 0.86666673, b: 0.8470589, a: 1}
    material: {fileID: 0}
    sprite: {fileID: 0}
    colorName: 680/P
  - color: {r: 0.6784314, g: 0.79215693, b: 0.83921576, a: 1}
    material: {fileID: 0}
    sprite: {fileID: 0}
    colorName: 679/P
  - color: {r: 0.27058825, g: 0.43921572, b: 0.50980395, a: 1}
    material: {fileID: 0}
    sprite: {fileID: 0}
    colorName: 659/P
  - color: {r: 0.42352945, g: 0.654902, b: 0.7254902, a: 1}
    material: {fileID: 0}
    sprite: {fileID: 0}
    colorName: 667/P
  - color: {r: 0.098039225, g: 0.5019608, b: 0.70980394, a: 1}
    material: {fileID: 0}
    sprite: {fileID: 0}
    colorName: 669/P
  - color: {r: 0.19215688, g: 0.2627451, b: 0.3921569, a: 1}
    material: {fileID: 0}
    sprite: {fileID: 0}
    colorName: 670/P
  - color: {r: 0.15294118, g: 0.20784315, b: 0.46274513, a: 1}
    material: {fileID: 0}
    sprite: {fileID: 0}
    colorName: 671/P
  - color: {r: 0.627451, g: 0.47058827, b: 0.67058825, a: 1}
    material: {fileID: 0}
    sprite: {fileID: 0}
    colorName: 664/P
  - color: {r: 0.47058827, g: 0.17254902, b: 0.25490198, a: 1}
    material: {fileID: 0}
    sprite: {fileID: 0}
    colorName: 663/P
  - color: {r: 0.7725491, g: 0.019607844, b: 0.2901961, a: 1}
    material: {fileID: 0}
    sprite: {fileID: 0}
    colorName: 661/P
  - color: {r: 0.8000001, g: 0.21568629, b: 0.40784317, a: 1}
    material: {fileID: 0}
    sprite: {fileID: 0}
    colorName: 662/P
  - color: {r: 0.7411765, g: 0.50980395, b: 0.49803925, a: 1}
    material: {fileID: 0}
    sprite: {fileID: 0}
    colorName: 682/P
  - color: {r: 0.5921569, g: 0.47058827, b: 0.40784317, a: 1}
    material: {fileID: 0}
    sprite: {fileID: 0}
    colorName: 683/P
  - color: {r: 0.8000001, g: 0.74509805, b: 0.6862745, a: 1}
    material: {fileID: 0}
    sprite: {fileID: 0}
    colorName: 676/P
  - color: {r: 0.91372555, g: 0.9058824, b: 0.8745099, a: 1}
    material: {fileID: 0}
    sprite: {fileID: 0}
    colorName: 673/P
  - color: {r: 0.9058824, g: 0.8705883, b: 0.8235295, a: 1}
    material: {fileID: 0}
    sprite: {fileID: 0}
    colorName: 674/P
  - color: {r: 0.7019608, g: 0.7058824, b: 0.6784314, a: 1}
    material: {fileID: 0}
    sprite: {fileID: 0}
    colorName: 666/P
  - color: {r: 0.48235297, g: 0.4784314, b: 0.4784314, a: 1}
    material: {fileID: 0}
    sprite: {fileID: 0}
    colorName: 684/P
  - color: {r: 0.20784315, g: 0.19215688, b: 0.20392159, a: 1}
    material: {fileID: 0}
    sprite: {fileID: 0}
    colorName: 685/P
  orderByName: 0
