%YAML 1.1
%TAG !u! tag:unity3d.com,2011:
--- !u!114 &11400000
MonoBehaviour:
  m_ObjectHideFlags: 0
  m_CorrespondingSourceObject: {fileID: 0}
  m_PrefabInstance: {fileID: 0}
  m_PrefabAsset: {fileID: 0}
  m_GameObject: {fileID: 0}
  m_Enabled: 1
  m_EditorHideFlags: 0
  m_Script: {fileID: 11500000, guid: 8973e6154edcde744841ac45fa8be0e2, type: 3}
  m_Name: Goteborg
  m_EditorClassIdentifier: 
  colors:
  - color: {r: 1, g: 1, b: 1, a: 1}
    material: {fileID: 2100000, guid: d81f455884113804d8d59348eabb4b4e, type: 2}
    sprite: {fileID: 21300000, guid: f6dd89ea2609dff46a218812218647c6, type: 3}
    colorName: 103
  - color: {r: 1, g: 1, b: 1, a: 1}
    material: {fileID: 2100000, guid: 2b453ea8f6a10fb4c984494b09a7bff3, type: 2}
    sprite: {fileID: 21300000, guid: 21e5f18147afc7b44bd3da3c53939d92, type: 3}
    colorName: 500
  - color: {r: 1, g: 1, b: 1, a: 1}
    material: {fileID: 2100000, guid: c352b226266faa647a8b84e79421dc35, type: 2}
    sprite: {fileID: 21300000, guid: ba56d43a55abbad47b64e7fde953bd94, type: 3}
    colorName: 114
  - color: {r: 1, g: 1, b: 1, a: 1}
    material: {fileID: 2100000, guid: 7a9732851fb87e84e82c23f818d91d16, type: 2}
    sprite: {fileID: 21300000, guid: ec81d1133acfdb843abb12563c852c16, type: 3}
    colorName: 400
  - color: {r: 1, g: 1, b: 1, a: 1}
    material: {fileID: 2100000, guid: 90ff213499d29494485e983ba5d06065, type: 2}
    sprite: {fileID: 21300000, guid: 198dc4b1ceac40647bf7bbc6e2f446b8, type: 3}
    colorName: 100
  - color: {r: 1, g: 1, b: 1, a: 1}
    material: {fileID: 2100000, guid: 68d823a32d0a4924c9e3c05ef78a3fd9, type: 2}
    sprite: {fileID: 21300000, guid: 07168579166091a448d5e60c46deafc6, type: 3}
    colorName: 663
  orderByName: 0
