%YAML 1.1
%TAG !u! tag:unity3d.com,2011:
--- !u!114 &11400000
MonoBehaviour:
  m_ObjectHideFlags: 0
  m_CorrespondingSourceObject: {fileID: 0}
  m_PrefabInstance: {fileID: 0}
  m_PrefabAsset: {fileID: 0}
  m_GameObject: {fileID: 0}
  m_Enabled: 1
  m_EditorHideFlags: 0
  m_Script: {fileID: 11500000, guid: 8973e6154edcde744841ac45fa8be0e2, type: 3}
  m_Name: Kenia
  m_EditorClassIdentifier: 
  colors:
  - color: {r: 0.49803925, g: 0.54901963, b: 0.6784314, a: 1}
    material: {fileID: 0}
    sprite: {fileID: 0}
    colorName: Denim
  - color: {r: 0.6666667, g: 0.69803923, b: 0.5568628, a: 1}
    material: {fileID: 0}
    sprite: {fileID: 0}
    colorName: Olive
  - color: {r: 0.7176471, g: 0.4039216, b: 0.4039216, a: 1}
    material: {fileID: 0}
    sprite: {fileID: 0}
    colorName: Burgundy
  - color: {r: 0.87843144, g: 0.87843144, b: 0.87843144, a: 1}
    material: {fileID: 0}
    sprite: {fileID: 0}
    colorName: Light Grey
  - color: {r: 0.47058827, g: 0.49411768, b: 0.5176471, a: 1}
    material: {fileID: 0}
    sprite: {fileID: 0}
    colorName: Antracite
  - color: {r: 0.92549026, g: 0.8705883, b: 0.76470596, a: 1}
    material: {fileID: 0}
    sprite: {fileID: 0}
    colorName: Taupe
  - color: {r: 0.53333336, g: 0.47450984, b: 0.40784317, a: 1}
    material: {fileID: 0}
    sprite: {fileID: 0}
    colorName: Brown
  - color: {r: 0.83921576, g: 0.7686275, b: 0.5176471, a: 1}
    material: {fileID: 0}
    sprite: {fileID: 0}
    colorName: Wallnut
  - color: {r: 0.83921576, g: 0.7137255, b: 0.5176471, a: 1}
    material: {fileID: 0}
    sprite: {fileID: 0}
    colorName: Cognac
  - color: {r: 0.87843144, g: 0.6431373, b: 0.45882356, a: 1}
    material: {fileID: 0}
    sprite: {fileID: 0}
    colorName: Rost
  orderByName: 0
