%YAML 1.1
%TAG !u! tag:unity3d.com,2011:
--- !u!114 &11400000
MonoBehaviour:
  m_ObjectHideFlags: 0
  m_CorrespondingSourceObject: {fileID: 0}
  m_PrefabInstance: {fileID: 0}
  m_PrefabAsset: {fileID: 0}
  m_GameObject: {fileID: 0}
  m_Enabled: 1
  m_EditorHideFlags: 0
  m_Script: {fileID: 11500000, guid: 8973e6154edcde744841ac45fa8be0e2, type: 3}
  m_Name: Liberto
  m_EditorClassIdentifier: 
  colors:
  - color: {r: 0.9333334, g: 0.90196085, b: 0.87843144, a: 1}
    material: {fileID: 0}
    sprite: {fileID: 0}
    colorName: 1
  - color: {r: 0.87843144, g: 0.8470589, b: 0.8000001, a: 1}
    material: {fileID: 0}
    sprite: {fileID: 0}
    colorName: 2
  - color: {r: 0.8000001, g: 0.76470596, b: 0.7058824, a: 1}
    material: {fileID: 0}
    sprite: {fileID: 0}
    colorName: 3
  - color: {r: 0.5568628, g: 0.46274513, b: 0.4156863, a: 1}
    material: {fileID: 0}
    sprite: {fileID: 0}
    colorName: 4
  - color: {r: 0.29411766, g: 0.2392157, b: 0.23137257, a: 1}
    material: {fileID: 0}
    sprite: {fileID: 0}
    colorName: 5
  - color: {r: 0.83921576, g: 0.68235296, b: 0.47058827, a: 1}
    material: {fileID: 0}
    sprite: {fileID: 0}
    colorName: 6
  - color: {r: 1, g: 0.9294118, b: 0.40000004, a: 1}
    material: {fileID: 0}
    sprite: {fileID: 0}
    colorName: 7
  - color: {r: 0.9607844, g: 0.5686275, b: 0.3137255, a: 1}
    material: {fileID: 0}
    sprite: {fileID: 0}
    colorName: 8
  - color: {r: 0.6313726, g: 0.23529413, b: 0.25490198, a: 1}
    material: {fileID: 0}
    sprite: {fileID: 0}
    colorName: 9
  - color: {r: 0.6862745, g: 0.7058824, b: 0.36862746, a: 1}
    material: {fileID: 0}
    sprite: {fileID: 0}
    colorName: 10
  - color: {r: 0.35686275, g: 0.6509804, b: 0.7372549, a: 1}
    material: {fileID: 0}
    sprite: {fileID: 0}
    colorName: 11
  - color: {r: 0.4156863, g: 0.5019608, b: 0.75294125, a: 1}
    material: {fileID: 0}
    sprite: {fileID: 0}
    colorName: 12
  - color: {r: 0.16862746, g: 0.20784315, b: 0.30980393, a: 1}
    material: {fileID: 0}
    sprite: {fileID: 0}
    colorName: 13
  - color: {r: 0.95294124, g: 0.91372555, b: 0.9176471, a: 1}
    material: {fileID: 0}
    sprite: {fileID: 0}
    colorName: 14
  - color: {r: 0.7294118, g: 0.74509805, b: 0.75294125, a: 1}
    material: {fileID: 0}
    sprite: {fileID: 0}
    colorName: 15
  - color: {r: 0.56078434, g: 0.5647059, b: 0.6039216, a: 1}
    material: {fileID: 0}
    sprite: {fileID: 0}
    colorName: 16
  - color: {r: 0.40784317, g: 0.40784317, b: 0.43529415, a: 1}
    material: {fileID: 0}
    sprite: {fileID: 0}
    colorName: 17
  - color: {r: 0.227451, g: 0.227451, b: 0.27450982, a: 1}
    material: {fileID: 0}
    sprite: {fileID: 0}
    colorName: 18
  orderByName: 0
