%YAML 1.1
%TAG !u! tag:unity3d.com,2011:
--- !u!114 &11400000
MonoBehaviour:
  m_ObjectHideFlags: 0
  m_CorrespondingSourceObject: {fileID: 0}
  m_PrefabInstance: {fileID: 0}
  m_PrefabAsset: {fileID: 0}
  m_GameObject: {fileID: 0}
  m_Enabled: 1
  m_EditorHideFlags: 0
  m_Script: {fileID: 11500000, guid: 8973e6154edcde744841ac45fa8be0e2, type: 3}
  m_Name: Nevada
  m_EditorClassIdentifier: 
  colors:
  - color: {r: 1, g: 1, b: 1, a: 1}
    material: {fileID: 2100000, guid: 83c7bf73665891a47b42e13cc73d9620, type: 2}
    sprite: {fileID: 21300000, guid: c5c723ea45aff5c4cbffeba6016e013b, type: 3}
    colorName: 9
  - color: {r: 1, g: 1, b: 1, a: 1}
    material: {fileID: 2100000, guid: 944911f816669fc4591763e80e175b41, type: 2}
    sprite: {fileID: 21300000, guid: 0713ddd6369a45a4ba8cf7a0d1073ec8, type: 3}
    colorName: 90
  - color: {r: 1, g: 1, b: 1, a: 1}
    material: {fileID: 2100000, guid: 8f809a76df4539844b7f1afcc73b6af7, type: 2}
    sprite: {fileID: 21300000, guid: 2b7bb12a1d7ebcd4fb7c611cd023c7ca, type: 3}
    colorName: 50
  - color: {r: 1, g: 1, b: 1, a: 1}
    material: {fileID: 2100000, guid: 8d34ed50170aed04e9c5c1f0ae182661, type: 2}
    sprite: {fileID: 21300000, guid: 6bb8a0a374679d749ad40402fe054c32, type: 3}
    colorName: 87
  - color: {r: 1, g: 1, b: 1, a: 1}
    material: {fileID: 2100000, guid: 1170eca5a7a6ecc419d7b78886eb3026, type: 2}
    sprite: {fileID: 21300000, guid: f7d983f68822aea4aa4bbad99ccce28b, type: 3}
    colorName: 40
  - color: {r: 1, g: 1, b: 1, a: 1}
    material: {fileID: 2100000, guid: 0f6faf0c7d1dfd6409665f63bdb20081, type: 2}
    sprite: {fileID: 21300000, guid: 05f743d2754a45947bfba7f37430dd35, type: 3}
    colorName: 10
  orderByName: 0
