%YAML 1.1
%TAG !u! tag:unity3d.com,2011:
--- !u!114 &11400000
MonoBehaviour:
  m_ObjectHideFlags: 0
  m_CorrespondingSourceObject: {fileID: 0}
  m_PrefabInstance: {fileID: 0}
  m_PrefabAsset: {fileID: 0}
  m_GameObject: {fileID: 0}
  m_Enabled: 1
  m_EditorHideFlags: 0
  m_Script: {fileID: 11500000, guid: d272be3b58095a541a415096c0f337ea, type: 3}
  m_Name: Arteston_Carioca
  m_EditorClassIdentifier: 
  material: {fileID: 2100000, guid: 8d8317552a20d2643ac398c0bf6ea301, type: 2}
  materialShelf: {fileID: 0}
  image: {fileID: 21300000, guid: dfd5cf4c0022e02469fd9ef4934f9e78, type: 3}
  materialName: Carioca 01
  colors: {fileID: 11400000, guid: fb0869ed760321343ad0b674ff8a8a29, type: 2}
