%YAML 1.1
%TAG !u! tag:unity3d.com,2011:
--- !u!114 &11400000
MonoBehaviour:
  m_ObjectHideFlags: 0
  m_CorrespondingSourceObject: {fileID: 0}
  m_PrefabInstance: {fileID: 0}
  m_PrefabAsset: {fileID: 0}
  m_GameObject: {fileID: 0}
  m_Enabled: 1
  m_EditorHideFlags: 0
  m_Script: {fileID: 11500000, guid: d272be3b58095a541a415096c0f337ea, type: 3}
  m_Name: Arteston_Mazurka
  m_EditorClassIdentifier: 
  material: {fileID: 2100000, guid: f5c37ce4df93df5478f981131827afd3, type: 2}
  materialShelf: {fileID: 0}
  image: {fileID: 21300000, guid: 8cbb56d86824c7749a7ef6c02b5dc461, type: 3}
  materialName: Mazurka
  colors: {fileID: 11400000, guid: 33e19f2181d04c04f9edf0c6eff5eac5, type: 2}
