%YAML 1.1
%TAG !u! tag:unity3d.com,2011:
--- !u!114 &11400000
MonoBehaviour:
  m_ObjectHideFlags: 0
  m_CorrespondingSourceObject: {fileID: 0}
  m_PrefabInstance: {fileID: 0}
  m_PrefabAsset: {fileID: 0}
  m_GameObject: {fileID: 0}
  m_Enabled: 1
  m_EditorHideFlags: 0
  m_Script: {fileID: 11500000, guid: d272be3b58095a541a415096c0f337ea, type: 3}
  m_Name: Arteston_Brunei
  m_EditorClassIdentifier: 
  material: {fileID: 2100000, guid: 0103b287874748846980db811340d09b, type: 2}
  materialShelf: {fileID: 0}
  image: {fileID: 21300000, guid: 0a3608b5940a818428f09aa31bb38d05, type: 3}
  materialName: Brunei
  colors: {fileID: 11400000, guid: d30a57762a1f6cf48bcf680ad42869d6, type: 2}
