%YAML 1.1
%TAG !u! tag:unity3d.com,2011:
--- !u!114 &11400000
MonoBehaviour:
  m_ObjectHideFlags: 0
  m_CorrespondingSourceObject: {fileID: 0}
  m_PrefabInstance: {fileID: 0}
  m_PrefabAsset: {fileID: 0}
  m_GameObject: {fileID: 0}
  m_Enabled: 1
  m_EditorHideFlags: 0
  m_Script: {fileID: 11500000, guid: d272be3b58095a541a415096c0f337ea, type: 3}
  m_Name: Kroslak_Liberto
  m_EditorClassIdentifier: 
  material: {fileID: 2100000, guid: 8c3d5fd9842681c4886b94771c81dd34, type: 2}
  materialShelf: {fileID: 0}
  image: {fileID: 21300000, guid: d6057c1076bbbde46b2e617a5234d490, type: 3}
  materialName: Liberto
  colors: {fileID: 11400000, guid: cb7ebee5382c1c945842f219651ab3a5, type: 2}
