%YAML 1.1
%TAG !u! tag:unity3d.com,2011:
--- !u!114 &11400000
MonoBehaviour:
  m_ObjectHideFlags: 0
  m_CorrespondingSourceObject: {fileID: 0}
  m_PrefabInstance: {fileID: 0}
  m_PrefabAsset: {fileID: 0}
  m_GameObject: {fileID: 0}
  m_Enabled: 1
  m_EditorHideFlags: 0
  m_Script: {fileID: 11500000, guid: d272be3b58095a541a415096c0f337ea, type: 3}
  m_Name: Kroslak_Ronda
  m_EditorClassIdentifier: 
  material: {fileID: 2100000, guid: ecc16818adc1bc145a2ac6093e95ee70, type: 2}
  materialShelf: {fileID: 0}
  image: {fileID: 21300000, guid: 331b31a23ba5def4fbb129bff7858ea3, type: 3}
  materialName: Ronda
  colors: {fileID: 11400000, guid: a75eb972d03194347996035425218f33, type: 2}
