%YAML 1.1
%TAG !u! tag:unity3d.com,2011:
--- !u!114 &11400000
MonoBehaviour:
  m_ObjectHideFlags: 0
  m_CorrespondingSourceObject: {fileID: 0}
  m_PrefabInstance: {fileID: 0}
  m_PrefabAsset: {fileID: 0}
  m_GameObject: {fileID: 0}
  m_Enabled: 1
  m_EditorHideFlags: 0
  m_Script: {fileID: 11500000, guid: d272be3b58095a541a415096c0f337ea, type: 3}
  m_Name: Kroslak_Galahad
  m_EditorClassIdentifier: 
  material: {fileID: 2100000, guid: 99656fd9aa992f6448ecdf0acb33d10f, type: 2}
  materialShelf: {fileID: 0}
  image: {fileID: 21300000, guid: bcd8a620ab29a7f4dae5154a0387c92a, type: 3}
  materialName: Galahad
  colors: {fileID: 11400000, guid: 91eca290f6b6db547af52fbf57876a97, type: 2}
