%YAML 1.1
%TAG !u! tag:unity3d.com,2011:
--- !u!114 &11400000
MonoBehaviour:
  m_ObjectHideFlags: 0
  m_CorrespondingSourceObject: {fileID: 0}
  m_PrefabInstance: {fileID: 0}
  m_PrefabAsset: {fileID: 0}
  m_GameObject: {fileID: 0}
  m_Enabled: 1
  m_EditorHideFlags: 0
  m_Script: {fileID: 11500000, guid: d272be3b58095a541a415096c0f337ea, type: 3}
  m_Name: Kroslak_Lora
  m_EditorClassIdentifier: 
  material: {fileID: 2100000, guid: 6ccab6f9c20f7cf4d9cfa04c12191690, type: 2}
  materialShelf: {fileID: 0}
  image: {fileID: 21300000, guid: 6cb9f1344ee9b9347a081cbc2d712552, type: 3}
  materialName: Lora
  colors: {fileID: 11400000, guid: a2658b45b49efa74d8cd0eba3806fa3b, type: 2}
