%YAML 1.1
%TAG !u! tag:unity3d.com,2011:
--- !u!1045 &1
EditorBuildSettings:
  m_ObjectHideFlags: 0
  serializedVersion: 2
  m_Scenes:
  - enabled: 0
    path: Assets/_Custom/Kroslak/Scenes/kroslak_arteston_selection.unity
    guid: d20186802c609954cae29bf83b3b51b2
  - enabled: 1
    path: Assets/_Custom/Kroslak/Scenes/kroslak_arteston_menu.unity
    guid: 3c80017723a28654b981d2449225ea17
  - enabled: 1
    path: Assets/_Custom/Kroslak/Scenes/kroslak_arteston_configurator.unity
    guid: 5545a65c4f9e67c4789fa1c52cacb0e2
  - enabled: 0
    path: Assets/Scenes/menu.unity
    guid: d7b88f06fa4c0374ab313fdc0e3beebb
  - enabled: 0
    path: Assets/Scenes/configurator.unity
    guid: d5c31a81068eebe4796f2288bc9f3708
  - enabled: 0
    path: Assets/Scenes/ar.unity
    guid: 91879b5b23b257a48ad9ba0e4a20b352
  m_configObjects:
    UnityEditor.XR.ARCore.ARCoreSettings: {fileID: 11400000, guid: 0cacb9834b24e954d8384aa71a498117,
      type: 2}
    UnityEditor.XR.ARKit.ARKitSettings: {fileID: 11400000, guid: 3853b401dc754a448bcc46bde7fde1fb,
      type: 2}
    com.unity.xr.management.arcore_loader: {fileID: 11400000, guid: 79e7056a308be7f49b68c9d65dea52da,
      type: 2}
    com.unity.xr.management.arkit_loader: {fileID: 11400000, guid: 9decbb1acc1e70c4bbe80c9c3ae74f96,
      type: 2}
    com.unity.xr.management.loader_settings: {fileID: 11400000, guid: 8f1129972874aa742a0d1f042b8148fb,
      type: 2}
