%YAML 1.1
%TAG !u! tag:unity3d.com,2011:
--- !u!114 &11400000
MonoBehaviour:
  m_ObjectHideFlags: 0
  m_CorrespondingSourceObject: {fileID: 0}
  m_PrefabInstance: {fileID: 0}
  m_PrefabAsset: {fileID: 0}
  m_GameObject: {fileID: 0}
  m_Enabled: 1
  m_EditorHideFlags: 0
  m_Script: {fileID: 11500000, guid: d272be3b58095a541a415096c0f337ea, type: 3}
  m_Name: Forli
  m_EditorClassIdentifier: 
  material: {fileID: 2100000, guid: 134dc61ba319e514794f6e465595d33e, type: 2}
  materialShelf: {fileID: 2100000, guid: 134dc61ba319e514794f6e465595d33e, type: 2}
  image: {fileID: 21300000, guid: 877378d9e8b106c47bb17be16dec17fa, type: 3}
  materialName: Forli
  colors: {fileID: 11400000, guid: c6b7390e44a10894eb0cc14b04e2416b, type: 2}
