%YAML 1.1
%TAG !u! tag:unity3d.com,2011:
--- !u!114 &11400000
MonoBehaviour:
  m_ObjectHideFlags: 0
  m_CorrespondingSourceObject: {fileID: 0}
  m_PrefabInstance: {fileID: 0}
  m_PrefabAsset: {fileID: 0}
  m_GameObject: {fileID: 0}
  m_Enabled: 1
  m_EditorHideFlags: 0
  m_Script: {fileID: 11500000, guid: 89aa10cdd49e949efad7c366f36fa247, type: 3}
  m_Name: NPSettings
  m_EditorClassIdentifier: 
  m_lastOpenedDateString: 
  m_applicationSettings:
    m_supportedFeatures:
      m_usesAddressBook: 0
      m_usesBilling: 0
      m_usesCloudServices: 0
      m_usesGameServices: 0
      m_mediaLibrary:
        value: 1
        usesCamera: 1
        usesPhotoAlbum: 1
      m_usesNetworkConnectivity: 0
      m_notificationService:
        value: 0
        usesLocalNotification: 1
        usesRemoteNotification: 1
      m_usesSharing: 1
      m_usesTwitter: 0
      m_usesWebView: 0
    m_supportedAddonServices:
      m_usesSoomlaGrow: 0
      m_usesOneSignal: 0
    m_iOS:
      m_storeIdentifier: sk.sedackymilenium.konfigurator
      m_addressBookUsagePermissionDescription: $(PRODUCT_NAME) uses contacts
      m_cameraUsagePermissionDescription: $(PRODUCT_NAME) uses camera
      m_photoAlbumUsagePermissionDescription: $(PRODUCT_NAME) uses photo library
      m_photoAlbumModifyUsagePermissionDescription: $(PRODUCT_NAME) saves images to
        photo library
    m_android:
      m_storeIdentifier: sk.sedackymilenium.konfigurator
  m_networkConnectivitySettings:
    m_hostAddressIPV4: 8.8.8.8
    m_hostAddressIPV6: 0:0:0:0:0:FFFF:0808:0808
    m_timeOutPeriod: 60
    m_maxRetryCount: 2
    m_timeGapBetweenPolling: 2
    m_android:
      m_port: 53
  m_utilitySettings:
    m_rateMyApp:
      m_isEnabled: 0
      m_title: Rate My App
      m_message: If you enjoy using Native Plugin would you mind taking a moment to
        rate it? It wont take more than a minute. Thanks for your support
      m_showFirstPromptAfterHours: 2
      m_successivePromptAfterHours: 6
      m_successivePromptAfterLaunches: 5
      m_rateItButtonText: Rate It Now
      m_remindMeLaterButtonText: Remind Me Later
      m_dontAskButtonText: No, Thanks
    m_android:
      m_modifiesApplicationBadge: 1
  m_billingSettings:
    m_products: []
    m_iOS:
      m_supportsReceiptValidation: 1
      m_validateUsingServerURL: 
    m_android:
      m_publicKey: 
  m_cloudServicesSettings:
    m_android:
      m_syncInterval: 10
  m_mediaLibrarySettings:
    m_android:
      m_youtubeAPIKey: 
      m_saveToGallerySavesToAppFolder: 1
  m_notificationSettings:
    m_iOS:
      m_userInfoKey: user_info
    m_android:
      m_allowVibration: 1
      m_whiteSmallIcon: {fileID: 0}
      m_colouredSmallIcon: {fileID: 0}
      m_tickerTextKey: ticker_text
      m_contentTextKey: content_text
      m_contentTitleKey: content_title
      m_userInfoKey: user_info
      m_tagKey: tag
  m_socialNetworkSettings:
    m_twitterSettings:
      m_consumerKey: 
      m_consumerSecret: 
  m_gameServicesSettings:
    m_leaderboardMetadataCollection: []
    m_achievementMetadataCollection: []
    m_iOS:
      m_showDefaultAchievementCompletionBanner: 1
    m_android:
      m_playServicesApplicationID: 
      m_serverClientID: 
      m_showDefaultErrorDialogs: 1
      m_allowAutoLogin: 1
    m_achievementIDCollection: []
    m_leaderboardIDCollection: []
  m_webViewSettings:
    m_android:
      m_useNewActivityForFullScreenWebView: 0
