%YAML 1.1
%TAG !u! tag:unity3d.com,2011:
--- !u!114 &11400000
MonoBehaviour:
  m_ObjectHideFlags: 0
  m_CorrespondingSourceObject: {fileID: 0}
  m_PrefabInstance: {fileID: 0}
  m_PrefabAsset: {fileID: 0}
  m_GameObject: {fileID: 0}
  m_Enabled: 1
  m_EditorHideFlags: 0
  m_Script: {fileID: 11500000, guid: d272be3b58095a541a415096c0f337ea, type: 3}
  m_Name: York
  m_EditorClassIdentifier: 
  material: {fileID: 2100000, guid: 47d246ecd66fee544b1fc0817c337312, type: 2}
  materialShelf: {fileID: 0}
  image: {fileID: 21300000, guid: dd932e124f300074e8251d30055c3207, type: 3}
  materialName: York
  colors: {fileID: 11400000, guid: fcb96fbed44e27a49973ebb82539550e, type: 2}
