%YAML 1.1
%TAG !u! tag:unity3d.com,2011:
--- !u!114 &1407203661920822225
MonoBehaviour:
  m_ObjectHideFlags: 0
  m_CorrespondingSourceObject: {fileID: 0}
  m_PrefabInstance: {fileID: 0}
  m_PrefabAsset: {fileID: 0}
  m_GameObject: {fileID: 7943287081400338113}
  m_Enabled: 1
  m_EditorHideFlags: 0
  m_Script: {fileID: 11500000, guid: 816c52b73d7a1de4d8f07430f0420752, type: 3}
  m_Name: 
  m_EditorClassIdentifier: 
  partMeshType: main2
  setMaterialIndex: 1
  setMaterialIndex2: -1
--- !u!1001 &6343916527941936355
PrefabInstance:
  m_ObjectHideFlags: 0
  serializedVersion: 2
  m_Modification:
    m_TransformParent: {fileID: 0}
    m_Modifications:
    - target: {fileID: 3290337530994334606, guid: 2cfb041e9e5f2b04e9e10c5c05d137aa,
        type: 3}
      propertyPath: m_Name
      value: A1US
      objectReference: {fileID: 0}
    - target: {fileID: 8602092108822694566, guid: 2cfb041e9e5f2b04e9e10c5c05d137aa,
        type: 3}
      propertyPath: m_LocalPosition.x
      value: 0
      objectReference: {fileID: 0}
    - target: {fileID: 8602092108822694566, guid: 2cfb041e9e5f2b04e9e10c5c05d137aa,
        type: 3}
      propertyPath: m_LocalPosition.y
      value: 0
      objectReference: {fileID: 0}
    - target: {fileID: 8602092108822694566, guid: 2cfb041e9e5f2b04e9e10c5c05d137aa,
        type: 3}
      propertyPath: m_LocalPosition.z
      value: 0
      objectReference: {fileID: 0}
    - target: {fileID: 8602092108822694566, guid: 2cfb041e9e5f2b04e9e10c5c05d137aa,
        type: 3}
      propertyPath: m_LocalRotation.x
      value: 0
      objectReference: {fileID: 0}
    - target: {fileID: 8602092108822694566, guid: 2cfb041e9e5f2b04e9e10c5c05d137aa,
        type: 3}
      propertyPath: m_LocalRotation.y
      value: 1
      objectReference: {fileID: 0}
    - target: {fileID: 8602092108822694566, guid: 2cfb041e9e5f2b04e9e10c5c05d137aa,
        type: 3}
      propertyPath: m_LocalRotation.z
      value: 0
      objectReference: {fileID: 0}
    - target: {fileID: 8602092108822694566, guid: 2cfb041e9e5f2b04e9e10c5c05d137aa,
        type: 3}
      propertyPath: m_LocalRotation.w
      value: -0.00000004371139
      objectReference: {fileID: 0}
    - target: {fileID: 8602092108822694566, guid: 2cfb041e9e5f2b04e9e10c5c05d137aa,
        type: 3}
      propertyPath: m_RootOrder
      value: 0
      objectReference: {fileID: 0}
    - target: {fileID: 8602092108822694566, guid: 2cfb041e9e5f2b04e9e10c5c05d137aa,
        type: 3}
      propertyPath: m_LocalEulerAnglesHint.x
      value: 0
      objectReference: {fileID: 0}
    - target: {fileID: 8602092108822694566, guid: 2cfb041e9e5f2b04e9e10c5c05d137aa,
        type: 3}
      propertyPath: m_LocalEulerAnglesHint.y
      value: 0
      objectReference: {fileID: 0}
    - target: {fileID: 8602092108822694566, guid: 2cfb041e9e5f2b04e9e10c5c05d137aa,
        type: 3}
      propertyPath: m_LocalEulerAnglesHint.z
      value: 0
      objectReference: {fileID: 0}
    - target: {fileID: 1719285518225574287, guid: 2cfb041e9e5f2b04e9e10c5c05d137aa,
        type: 3}
      propertyPath: partNameCombinations.Array.size
      value: 0
      objectReference: {fileID: 0}
    - target: {fileID: 1719285518225574287, guid: 2cfb041e9e5f2b04e9e10c5c05d137aa,
        type: 3}
      propertyPath: partPoints.Array.size
      value: 0
      objectReference: {fileID: 0}
    - target: {fileID: 1719285518225574287, guid: 2cfb041e9e5f2b04e9e10c5c05d137aa,
        type: 3}
      propertyPath: partName
      value: A1US
      objectReference: {fileID: 0}
    - target: {fileID: 1719285518225574287, guid: 2cfb041e9e5f2b04e9e10c5c05d137aa,
        type: 3}
      propertyPath: image
      value: 
      objectReference: {fileID: 21300000, guid: 40b70ad96aded0e4dbcb1749d539d916,
        type: 3}
    - target: {fileID: 1719285518225574287, guid: 2cfb041e9e5f2b04e9e10c5c05d137aa,
        type: 3}
      propertyPath: partCategory
      value: chair
      objectReference: {fileID: 0}
    - target: {fileID: 6376412820043236088, guid: 2cfb041e9e5f2b04e9e10c5c05d137aa,
        type: 3}
      propertyPath: allowedCategories.Array.size
      value: 1
      objectReference: {fileID: 0}
    - target: {fileID: 6376412820043236088, guid: 2cfb041e9e5f2b04e9e10c5c05d137aa,
        type: 3}
      propertyPath: allowedCategories.Array.data[0]
      value: armr
      objectReference: {fileID: 0}
    - target: {fileID: 9010775696120127584, guid: 2cfb041e9e5f2b04e9e10c5c05d137aa,
        type: 3}
      propertyPath: allowedCategories.Array.size
      value: 1
      objectReference: {fileID: 0}
    - target: {fileID: 9010775696120127584, guid: 2cfb041e9e5f2b04e9e10c5c05d137aa,
        type: 3}
      propertyPath: allowedCategories.Array.data[0]
      value: arml
      objectReference: {fileID: 0}
    - target: {fileID: 2880340310303207957, guid: 2cfb041e9e5f2b04e9e10c5c05d137aa,
        type: 3}
      propertyPath: m_IsActive
      value: 0
      objectReference: {fileID: 0}
    - target: {fileID: 6484850051604344099, guid: 2cfb041e9e5f2b04e9e10c5c05d137aa,
        type: 3}
      propertyPath: m_IsActive
      value: 0
      objectReference: {fileID: 0}
    - target: {fileID: 4251594228623575800, guid: 2cfb041e9e5f2b04e9e10c5c05d137aa,
        type: 3}
      propertyPath: m_IsActive
      value: 1
      objectReference: {fileID: 0}
    - target: {fileID: 5122937268627920185, guid: 2cfb041e9e5f2b04e9e10c5c05d137aa,
        type: 3}
      propertyPath: m_IsActive
      value: 1
      objectReference: {fileID: 0}
    - target: {fileID: 4763806803830073573, guid: 2cfb041e9e5f2b04e9e10c5c05d137aa,
        type: 3}
      propertyPath: m_Materials.Array.data[0]
      value: 
      objectReference: {fileID: 2100000, guid: ef0a40ef0c4155445bab600761bd9a08, type: 2}
    - target: {fileID: 9108563101576280745, guid: 2cfb041e9e5f2b04e9e10c5c05d137aa,
        type: 3}
      propertyPath: m_Materials.Array.data[0]
      value: 
      objectReference: {fileID: 2100000, guid: 2abd7b2298a510a4aa3c01245cd0c1ec, type: 2}
    - target: {fileID: 8603437749043607052, guid: 2cfb041e9e5f2b04e9e10c5c05d137aa,
        type: 3}
      propertyPath: partMeshType
      value: main2
      objectReference: {fileID: 0}
    - target: {fileID: 1223012590560102949, guid: 2cfb041e9e5f2b04e9e10c5c05d137aa,
        type: 3}
      propertyPath: m_Materials.Array.data[0]
      value: 
      objectReference: {fileID: 2100000, guid: 2abd7b2298a510a4aa3c01245cd0c1ec, type: 2}
    - target: {fileID: 1223012590560102949, guid: 2cfb041e9e5f2b04e9e10c5c05d137aa,
        type: 3}
      propertyPath: m_Materials.Array.data[1]
      value: 
      objectReference: {fileID: 2100000, guid: ef0a40ef0c4155445bab600761bd9a08, type: 2}
    - target: {fileID: 1267011598925049627, guid: 2cfb041e9e5f2b04e9e10c5c05d137aa,
        type: 3}
      propertyPath: setMaterialIndex
      value: 0
      objectReference: {fileID: 0}
    - target: {fileID: 440636362871646963, guid: 2cfb041e9e5f2b04e9e10c5c05d137aa,
        type: 3}
      propertyPath: m_Materials.Array.data[0]
      value: 
      objectReference: {fileID: 2100000, guid: 2abd7b2298a510a4aa3c01245cd0c1ec, type: 2}
    - target: {fileID: 4331610327160393812, guid: 2cfb041e9e5f2b04e9e10c5c05d137aa,
        type: 3}
      propertyPath: m_Materials.Array.data[0]
      value: 
      objectReference: {fileID: 2100000, guid: ef0a40ef0c4155445bab600761bd9a08, type: 2}
    - target: {fileID: 3546682163422384851, guid: 2cfb041e9e5f2b04e9e10c5c05d137aa,
        type: 3}
      propertyPath: m_Materials.Array.data[0]
      value: 
      objectReference: {fileID: 2100000, guid: ef0a40ef0c4155445bab600761bd9a08, type: 2}
    - target: {fileID: 3642465671188050564, guid: 2cfb041e9e5f2b04e9e10c5c05d137aa,
        type: 3}
      propertyPath: m_Materials.Array.data[0]
      value: 
      objectReference: {fileID: 2100000, guid: 2abd7b2298a510a4aa3c01245cd0c1ec, type: 2}
    - target: {fileID: 3906282599409790457, guid: 2cfb041e9e5f2b04e9e10c5c05d137aa,
        type: 3}
      propertyPath: m_Materials.Array.data[0]
      value: 
      objectReference: {fileID: 2100000, guid: 2abd7b2298a510a4aa3c01245cd0c1ec, type: 2}
    m_RemovedComponents:
    - {fileID: 5800248536602716747, guid: 2cfb041e9e5f2b04e9e10c5c05d137aa, type: 3}
  m_SourcePrefab: {fileID: 100100000, guid: 2cfb041e9e5f2b04e9e10c5c05d137aa, type: 3}
--- !u!1 &7943287081400338113 stripped
GameObject:
  m_CorrespondingSourceObject: {fileID: 3906353688454914594, guid: 2cfb041e9e5f2b04e9e10c5c05d137aa,
    type: 3}
  m_PrefabInstance: {fileID: 6343916527941936355}
  m_PrefabAsset: {fileID: 0}
