%YAML 1.1
%TAG !u! tag:unity3d.com,2011:
--- !u!114 &11400000
MonoBehaviour:
  m_ObjectHideFlags: 0
  m_CorrespondingSourceObject: {fileID: 0}
  m_PrefabInstance: {fileID: 0}
  m_PrefabAsset: {fileID: 0}
  m_GameObject: {fileID: 0}
  m_Enabled: 1
  m_EditorHideFlags: 0
  m_Script: {fileID: 11500000, guid: d272be3b58095a541a415096c0f337ea, type: 3}
  m_Name: jelsa
  m_EditorClassIdentifier: 
  material: {fileID: 2100000, guid: e5a1cc3519b7bea43b3794f9d4d9375a, type: 2}
  materialGUI: {fileID: 2100000, guid: 10fb5c25e77a4e84d99380feffde30d4, type: 2}
  materialShelf: {fileID: 2100000, guid: e5a1cc3519b7bea43b3794f9d4d9375a, type: 2}
  image: {fileID: 21300000, guid: 4724e75b4e17a3a43b9f77e848dac12d, type: 3}
  materialName: jelsa
  colors: {fileID: 11400000, guid: 86ca1418ac66ec4459c067105e209e1e, type: 2}
